%YAML 1.1
%TAG !u! tag:unity3d.com,2011:
--- !u!114 &11400000
MonoBehaviour:
  m_ObjectHideFlags: 0
  m_CorrespondingSourceObject: {fileID: 0}
  m_PrefabInstance: {fileID: 0}
  m_PrefabAsset: {fileID: 0}
  m_GameObject: {fileID: 0}
  m_Enabled: 1
  m_EditorHideFlags: 0
  m_Script: {fileID: 11500000, guid: 2d5751a2c961df945a34295ccf5e576d, type: 3}
  m_Name: Prefab brush
  m_EditorClassIdentifier: 
  m_Prefabs:
  - {fileID: 69631211916824129, guid: 302dada02d9c4d64db6f2a78a49c84c6, type: 3}
  m_PerlinScale: 0.5
  m_Z: 0
